<?xml version="1.0" encoding="UTF-8" standalone="no"?>
<!-- Created with sK1/UniConvertor (http://sk1project.org/) -->

<svg
   xmlns:dc="http://purl.org/dc/elements/1.1/"
   xmlns:cc="http://creativecommons.org/ns#"
   xmlns:rdf="http://www.w3.org/1999/02/22-rdf-syntax-ns#"
   xmlns:svg="http://www.w3.org/2000/svg"
   xmlns="http://www.w3.org/2000/svg"
   xmlns:sodipodi="http://sodipodi.sourceforge.net/DTD/sodipodi-0.dtd"
   xmlns:inkscape="http://www.inkscape.org/namespaces/inkscape"
   width="595.276pt"
   height="841.89pt"
   viewBox="0 0 595.276 841.89"
   fill-rule="evenodd"
   id="svg2985"
   version="1.1"
   inkscape:version="0.92.3 (2405546, 2018-03-11)"
   sodipodi:docname="horse_shoe.svg">
  <metadata
     id="metadata3011">
    <rdf:RDF>
      <cc:Work
         rdf:about="">
        <dc:format>image/svg+xml</dc:format>
        <dc:type
           rdf:resource="http://purl.org/dc/dcmitype/StillImage" />
        <dc:title />
      </cc:Work>
    </rdf:RDF>
  </metadata>
  <defs
     id="defs3009" />
  <sodipodi:namedview
     pagecolor="#ffffff"
     bordercolor="#666666"
     borderopacity="1"
     objecttolerance="10"
     gridtolerance="10"
     guidetolerance="10"
     inkscape:pageopacity="0"
     inkscape:pageshadow="2"
     inkscape:window-width="1920"
     inkscape:window-height="1031"
     id="namedview3007"
     showgrid="false"
     inkscape:zoom="0.46846973"
     inkscape:cx="376.31671"
     inkscape:cy="447.53577"
     inkscape:window-x="0"
     inkscape:window-y="0"
     inkscape:window-maximized="1"
     inkscape:current-layer="svg2985" />
  <g
     id="g2987"
     transform="rotate(180,146.65055,562.49571)">
    <path
       style="fill:#2c2c2b;stroke:none"
       d="m 226,550.223 c -19.334,-80 -26.549,-83.739 -41.292,-114.667 -7.754,-16.265 -13.379,-25.267 -17.763,-29.987 -6.089,-7.718 -15.518,-12.678 -26.112,-12.678 -18.362,0 -33.25,14.885 -33.25,33.249 0,4.241 0.803,8.293 2.25,12.022 1.76,6.174 8.616,17.314 20.132,43.57 26.833,64.118 30.069,121.461 30.821,157.178 2.791,132.625 -72.3837,215.525 -161.6766,215.525 -89.2881,0 -173.1564,-97.049 -161.6734,-215.525 9.268,-95.602 41.563,-167.629 49.19,-183.729 2.943,-6.091 4.623,-10.291 5.868,-13.661 2.005,-4.38 3.589,-9.973 3.589,-15.38 0,-18.364 -14.888,-33.249 -33.25,-33.249 -8.669,0 -16.562,3.321 -22.481,8.757 -4.019,3.242 -5.923,7.213 -7.827,10.512 -5.131,8.897 -16.389,29.042 -21.739,41.325 -0.13,0.3 -72.468,162.638 -47.69,291.499 9.558,49.712 43.019,96.345 47.972,102.814 13.599,17.759 26.551,35.589 53.103,53.103 20.284,13.379 124.078,89.095 244.045,20.337 C 192.448,872.96 210.431,819.64 225.152,779.726 237.509,746.231 249.367,646.912 226,550.223 Z"
       id="path2989"
       inkscape:connector-curvature="0" />
    <path
       style="fill:#ffffff;stroke:none"
       d="m -147.243,843.709 c -0.819,0.749 -2.089,0.689 -2.837,-0.133 l -11.126,-12.226 c -0.748,-0.822 -0.689,-2.093 0.131,-2.841 l 12.545,-11.441 c 0.819,-0.746 2.091,-0.687 2.839,0.134 l 11.125,12.227 c 0.748,0.821 0.688,2.094 -0.131,2.842 z"
       id="path2991"
       inkscape:connector-curvature="0" />
    <path
       style="fill:#ffffff;stroke:none"
       d="m 148.73,817.235 c -0.82,-0.749 -2.089,-0.688 -2.837,0.133 l -11.126,12.227 c -0.748,0.821 -0.69,2.093 0.131,2.841 l 12.544,11.44 c 0.82,0.746 2.091,0.688 2.839,-0.134 l 11.126,-12.226 c 0.748,-0.822 0.688,-2.094 -0.132,-2.842 z"
       id="path2993"
       inkscape:connector-curvature="0" />
    <path
       style="fill:#ffffff;stroke:none"
       d="m -185.902,726.051 c 0.282,1.073 -0.364,2.17 -1.44,2.448 l -16.002,4.147 c -1.075,0.279 -2.172,-0.367 -2.452,-1.44 l -4.277,-16.434 c -0.278,-1.073 0.367,-2.172 1.442,-2.45 l 16.003,-4.146 c 1.074,-0.279 2.173,0.368 2.453,1.441 z"
       id="path2995"
       inkscape:connector-curvature="0" />
    <path
       style="fill:#ffffff;stroke:none"
       d="m 207.214,715.338 c 0.282,-1.073 -0.363,-2.17 -1.44,-2.448 l -16.001,-4.147 c -1.076,-0.279 -2.172,0.366 -2.453,1.44 l -4.276,16.434 c -0.279,1.074 0.365,2.172 1.441,2.45 l 16.003,4.146 c 1.075,0.279 2.173,-0.367 2.452,-1.441 z"
       id="path2997"
       inkscape:connector-curvature="0" />
    <path
       style="fill:#ffffff;stroke:none"
       d="m 209.301,621.185 c 0.048,1.107 -0.816,2.043 -1.926,2.086 l -16.518,0.659 c -1.109,0.045 -2.044,-0.818 -2.09,-1.927 l -0.695,-16.967 c -0.045,-1.108 0.819,-2.045 1.928,-2.088 l 16.519,-0.658 c 1.108,-0.045 2.045,0.819 2.091,1.929 z"
       id="path2999"
       inkscape:connector-curvature="0" />
    <path
       style="fill:#ffffff;stroke:none"
       d="m -187.619,604.754 c 0.048,-1.107 -0.816,-2.043 -1.926,-2.086 l -16.518,-0.659 c -1.109,-0.045 -2.044,0.817 -2.09,1.927 l -0.695,16.966 c -0.045,1.108 0.819,2.045 1.928,2.088 l 16.519,0.659 c 1.108,0.045 2.045,-0.82 2.091,-1.929 z"
       id="path3001"
       inkscape:connector-curvature="0" />
    <path
       style="fill:#ffffff;stroke:none"
       d="m -158.606,501.264 c 0.409,-1.03 -0.098,-2.197 -1.131,-2.604 l -15.377,-6.066 c -1.033,-0.408 -2.2,0.098 -2.61,1.129 l -6.247,15.79 c -0.408,1.032 0.098,2.201 1.132,2.607 l 15.377,6.067 c 1.033,0.407 2.201,-0.101 2.611,-1.133 z"
       id="path3003"
       inkscape:connector-curvature="0" />
    <path
       style="fill:#ffffff;stroke:none"
       d="m 187.754,508.85 c 0.408,1.03 -0.098,2.197 -1.131,2.604 l -15.377,6.066 c -1.033,0.408 -2.201,-0.098 -2.61,-1.129 l -6.247,-15.79 c -0.409,-1.032 0.098,-2.201 1.131,-2.607 l 15.378,-6.067 c 1.033,-0.407 2.202,0.101 2.611,1.133 z"
       id="path3005"
       inkscape:connector-curvature="0" />
  </g>
</svg>
